AWSTATS DATA FILE 6.95 (build 1.943)
# If you remove this file, all statistics for date 201412 will be lost/reset.
# Last config file used to build this data file was /etc/awstats/awstats.sweetwood.com.ua.conf.

# Position (offset in bytes) in this file for beginning of each section for
# direct I/O access. If you made changes somewhere in this file, you should
# also remove completely the MAP section (AWStats will rewrite it at next
# update).
BEGIN_MAP 27
POS_GENERAL 1962                
POS_TIME 2628                
POS_VISITOR 13659               
POS_DAY 15007               
POS_DOMAIN 3529                
POS_LOGIN 3762                
POS_ROBOT 3917                
POS_WORMS 4390                
POS_EMAILSENDER 4521                
POS_EMAILRECEIVER 4664                
POS_SESSION 15559               
POS_SIDER 15745               
POS_FILETYPES 4799                
POS_OS 5003                
POS_BROWSER 5135                
POS_SCREENSIZE 5611                
POS_UNKNOWNREFERER 5685                
POS_UNKNOWNREFERERBROWSER 6151                
POS_ORIGIN 6337                
POS_SEREFERRALS 6476                
POS_PAGEREFS 6631                
POS_SEARCHWORDS 7789                
POS_KEYWORDS 8012                
POS_MISC 2292                
POS_ERRORS 8144                
POS_CLUSTER 3618                
POS_SIDER_404 8281                
END_MAP

# LastLine    = Date of last record processed - Last record line number in last log - Last record offset in last log - Last record signature value
# FirstTime   = Date of first visit for history file
# LastTime    = Date of last visit for history file
# LastUpdate  = Date of last update - Nb of parsed records - Nb of parsed old records - Nb of parsed new records - Nb of parsed corrupted - Nb of parsed dropped
# TotalVisits = Number of visits
# TotalUnique = Number of unique visitors
# MonthHostsKnown   = Number of hosts known
# MonthHostsUnKnown = Number of hosts unknown
BEGIN_GENERAL 8
LastLine 20150101000001 665 68868 13808046831
FirstTime 0
LastTime 20141231212350
LastUpdate 20150101000509 665 0 664 0 0
TotalVisits 52                  
TotalUnique 30                  
MonthHostsKnown 0                   
MonthHostsUnknown 32                  
END_GENERAL

# Misc ID - Pages - Hits - Bandwidth
BEGIN_MISC 10
QuickTimeSupport 0 0 0
JavaEnabled 0 0 0
JavascriptDisabled 0 0 0
PDFSupport 0 0 0
WindowsMediaPlayerSupport 0 0 0
AddToFavourites 0 5 0
RealPlayerSupport 0 0 0
TotalMisc 0 0 0
DirectorSupport 0 0 0
FlashSupport 0 0 0
END_MISC

# Hour - Pages - Hits - Bandwidth - Not viewed Pages - Not viewed Hits - Not viewed Bandwidth
BEGIN_TIME 24
0 1 68 13655087 770 773 20040381
1 0 0 0 740 751 20162396
2 2 2 54932 799 824 20244780
3 0 0 0 771 773 20241719
4 2 2 11139 744 746 19938295
5 0 0 0 748 758 20077102
6 1 1 5570 750 763 20410118
7 2 2 33045 736 779 32814915
8 2 2 32991 750 755 24406263
9 1 68 12372275 765 770 20804533
10 9 214 35214156 776 796 26434429
11 49 703 78104815 774 794 20648252
12 6 207 25548480 780 787 20862799
13 11 599 75017603 775 776 20562441
14 7 275 38219389 777 781 20759164
15 7 266 35959138 834 848 20607232
16 5 340 49916591 772 787 20759041
17 2 69 13682444 774 774 20582534
18 21 219 26765940 772 772 20552288
19 1 26 1182547 786 786 20608773
20 8 218 41302631 788 812 20702198
21 24 363 50512507 768 826 27931462
22 5 95 15291585 737 743 19974708
23 7 91 13704739 745 773 20878222
END_TIME

# Domain - Pages - Hits - Bandwidth
# The 10 first Pages must be first (order not required for others)
BEGIN_DOMAIN 1
ip 173 3830 526587604
END_DOMAIN

# Cluster ID - Pages - Hits - Bandwidth
BEGIN_CLUSTER 0
END_CLUSTER

# Login - Pages - Hits - Bandwidth - Last visit
# The 10 first Pages must be first (order not required for others)
BEGIN_LOGIN 0
END_LOGIN

# Robot ID - Hits - Bandwidth - Last visit - Hits on robots.txt
# The 10 first Hits must be first (order not required for others)
BEGIN_ROBOT 9
no_user_agent 17596 483600977 20141231235501 0
yandex 232 27646183 20141231183709 0
googlebot 209 902779 20141231151538 0
mj12bot 85 532106 20141230173110 0
bot[\s_+:,\.\;\/\\-] 51 330154 20141230061754 0
crawl 10 139070 20141217142108 0
python 6 146918 20141222102548 0
surveybot 1 5563 20141226020215 0
baiduspider 1 5574 20141210104527 0
END_ROBOT

# Worm ID - Hits - Bandwidth - Last visit
# The 5 first Hits must be first (order not required for others)
BEGIN_WORMS 0
END_WORMS

# EMail - Hits - Bandwidth - Last visit
# The 20 first Hits must be first (order not required for others)
BEGIN_EMAILSENDER 0
END_EMAILSENDER

# EMail - Hits - Bandwidth - Last visit
# The 20 first hits must be first (order not required for others)
BEGIN_EMAILRECEIVER 0
END_EMAILRECEIVER

# Files type - Hits - Bandwidth - Bandwidth without compression - Bandwidth after compression
BEGIN_FILETYPES 8
php 66 224766 0 0
css 440 6987282 0 0
png 625 9830296 0 0
html 98 805645 0 0
jpg 2344 501689774 0 0
js 227 6981193 0 0
Unknown 9 37028 0 0
gif 21 31620 0 0
END_FILETYPES

# OS ID - Hits
BEGIN_OS 8
linuxandroid 97
winlong 17
winxp 2453
winvista 138
linux 76
macosx 453
Unknown 6
win2008 590
END_OS

# Browser ID - Hits
BEGIN_BROWSER 25
msie6.0 2
chrome39.0.2171.93 29
firefox32.0 1
chrome29.0.1547.57 1
chrome37.0.2049.0 1
chrome41.0.2251.0 1
chrome39.0.2171.95 205
firefox18.0 4
chrome36.0.1985.67 1
firefox34.0 207
chrome39.0.2171.59 68
POE\-Component\-Client\-HTTP 2
firefox31.0 2448
msie8.0 2
firefox33.0 1
chrome36.0.1985.143 2
mozilla 1
chrome35.0.1916.153 1
msie7.0 1
firefox3.5.8 15
msie10.0 26
msie9.0 1
Unknown 3
firefox11.0 68
chrome39.0.2171.71 739
END_BROWSER

# Screen size - Hits
BEGIN_SCREENSIZE 0
END_SCREENSIZE

# Unknown referer OS - Last visit date
BEGIN_UNKNOWNREFERER 6
POE-Component-Client-HTTP/0.949_(perl;_N;_POE;_en;_rv:0.949000) 20141213185723
WebIndex 20141226182748
Mozilla/5.0_(compatible;_Muenster_University_of_Applied_Sciences;__http://fb02itsscan.fh-muenster.de) 20141215084229
Go_1.1_package_http 20141219152616
()_{_:;};echo;_/bin/bash_-c_\ 20141220153943
POE-Component-Client-HTTP/0.947_(perl;_N;_POE;_en;_rv:0.947000) 20141213174417
END_UNKNOWNREFERER

# Unknown referer Browser - Last visit date
BEGIN_UNKNOWNREFERERBROWSER 3
WebIndex 20141226182748
Go_1.1_package_http 20141219152616
()_{_:;};echo;_/bin/bash_-c_\ 20141220153943
END_UNKNOWNREFERERBROWSER

# Origin - Pages - Hits 
BEGIN_ORIGIN 6
From0 98 99
From1 0 0
From2 2 2
From3 49 301
From4 24 3428
From5 0 0
END_ORIGIN

# Search engine referers ID - Pages - Hits
BEGIN_SEREFERRALS 1
yandex 2 2
END_SEREFERRALS

# External page referers - Pages - Hits
# The 10 first Pages must be first (order not required for others)
BEGIN_PAGEREFS 21
http://176.9.165.195/myadmin/index.php 14 14
http://185.72.246.18/myadmin/index.php 11 15
http://185.72.246.18/gp/catalog.php 4 20
http://xn----8sbeheinbbklugv5aobadnwc6r.xn--p1ai 3 3
http://koopilka.com/dlya-biznesa/kanctovary/ofisnye-prinadlezhnosti/prochie-prinadlezhnosti-1/rezinka-dlya-deneg-cvetnaya.html 3 3
http://185.72.246.18/gp/contacts.php 2 4
https://185.72.246.18:1500/ispmgr 2 2
http://185.72.246.18/gp/product.php 2 5
http://185.72.246.18/myadmin/navigation.php 2 11
http://185.72.246.18/gp/ 1 12
http://185.72.246.18/themes/bootstrap/css/wna.css 0 9
http://185.72.246.18/myadmin/phpmyadmin.css.php 0 7
http://185.72.246.18/myadmin/db_export.php 1 1
http://185.72.246.18 0 112
http://185.72.246.18/gp/main.css 0 16
http://185.72.246.18/gp/index.php 1 21
https://185.72.246.18/webmail/src/login.php 1 2
http://185.72.246.18/myadmin/db_structure.php 1 14
http://185.72.246.18/myadmin/main.php 0 24
http://185.72.246.18/myadmin/js/mooRainbow/mooRainbow.css 0 2
https://185.72.246.18/myadmin/ 1 4
END_PAGEREFS

# Search keyphrases - Number of search
# The 10 first number of search must be first (order not required for others)
BEGIN_SEARCHWORDS 2
sweetwood.com.ua 1
%d0%bd%d0%b0%d0%b4%d1%8f+%d1%80%d0%b0%d0%b9%d1%81 1
END_SEARCHWORDS

# Search keywords - Number of search
# The 10 first number of search must be first (order not required for others)
BEGIN_KEYWORDS 3
sweetwood.com.ua 1
%d1%80%d0%b0%d0%b9%d1%81 1
%d0%bd%d0%b0%d0%b4%d1%8f 1
END_KEYWORDS

# Errors - Hits - Bandwidth
BEGIN_ERRORS 5
403 1 473
302 9 7703
206 10 7379634
301 2 1083
404 510 262714
END_ERRORS

# URL with 404 errors - Hits - Last URL referer
BEGIN_SIDER_404 180
//administrator.cgi 1 -
/cgcg/cgc/cg.php 1 -
/script 1 -
/plpl/plp/pl.php 1 -
//cgi-bin/login.cgi 1 -
/ywmsuuncoffv.html 1 -
//cgi-bin/admin/admin.cgi 1 -
//debug.cgi 1 -
//cgi-sys/entropysearch.cgi 1 -
//cartcart.cgi 1 -
//cgi-bin/wwwboard.cgi.cgi 1 -
/cimages/004.png 4 http://sweetwood.com.ua/gp/index.php
/cgi-bin/php-cgi.bin 1 -
//cgi-bin/ultraboard.cgi 1 -
//cgi-bin/main.cgi 1 -
//cgi-sys/suspendedpage.cgi 1 -
/myadmin/config/config.inc.php 1 -
/cimages/006.png 1 http://sweetwood.com.ua/gp/catalog.php
//cgi-mod/index.cgi 1 -
//cgi-bin/bigconf.cgi 1 -
/cimages/liyka_na_banku.png 4 http://sweetwood.com.ua/gp/index.php
/%70%68%70%70%61%74%68/%70%68%70 1 -
//cgi-bin/addbanner.cgi 1 -
/cici/cic/ci.php 1 -
//wp-login.php 3 -
/vhydrwnvikpmik.html 1 -
/mysql 2 -
/r/www/cache/static/home/img/logos/nuomi_ade5465d.png 19 -
/cgi-bin/php/%63%67%69%6E/%70%68%70 1 -
/login.do 1 -
//cgi-bin/admin.pl 1 -
/phpMyAdmin/scripts/setup.php 21 -
//cgi-bin/myguestbook.cgi 1 -
/login 1 -
//cgi-sys/signup.cgi 1 -
/lyly/lyl/ly.php 1 -
//cgi-bin/badmin.cgi 1 -
/actionnews/index/ 1 -
//404.cgi 1 -
/login.action 1 -
//analyse.cgi 1 -
/SQlite/main.php 1 -
/jenkins/login 1 -
/cgi-bin/php 2 -
/cgi-bin/php5-cgi 1 -
/cimages/liyka_fiesta.png 3 http://sweetwood.com.ua/gp/index.php
//cgi-bin/test-cgi 1 -
/Blog/wp-login.php 1 -
/SQLiteManager/main.php 1 -
//cgi-sys/helpdesk.cgi 1 -
//wwwboard/wwwsboard.cgi 1 -
/xuxu/xux/xu.php 1 -
//admin.cgi 1 -
/components/com_jcomments/libraries/joomlatune/ajax.js 1 http://www.freetime.if.ua/afisha/event/592-vystava-qbytyj-nebytu-vezeq
/blog//wp-login.php 2 -
/SQLite/SQLiteManager-1.2.4/main.php 1 -
/cimages/shnurok.png 3 http://sweetwood.com.ua/gp/index.php
//cgis/wwwboard/wwwboard.cgi 1 -
/lflf/lfl/lf.php 1 -
//cgi-bin/admin.cgi 1 -
/sqlitemanager/main.php 1 -
//main.cgi 1 -
/phpMyAdmin 1 -
//cgi-bin/test 1 -
/components/com_jcomments/tpl/default/style.css 1 http://www.freetime.if.ua/afisha/event/592-vystava-qbytyj-nebytu-vezeq
/cimages/kovryk.png 4 http://sweetwood.com.ua/gp/index.php
/ykyk/yky/yk.php 1 -
//cgi-bin/guestbook.cgi 1 -
//cgi-bin/adduser.cgi 1 -
//cgi-sys/mchat.cgi 1 -
//cgi-sys/domainredirect.cgi 1 -
/index.php/site/ 2 http://xn----8sbeheinbbklugv5aobadnwc6r.xn--p1ai
/vtigercrm/test/upload/vtigercrm.txt 2 -
//cgi-bin/mailnews.cgi 1 -
//cgi-bin/admin/setup.cgi 1 -
/phpmyadmin 1 -
//cgi-bin/adminwww.cgi 1 -
//cgi-sys/404.cgi 1 -
/jenkins/script 1 -
/plugins/system/plugin_googlemap2_proxy.php 1 -
/cimages/005.png 2 http://sweetwood.com.ua/gp/product.php
//cgi-bin/search.cgi 1 -
//login.cgi 1 -
/msd1.24.4 1 -
/robots.txt 191 -
/jmx-console 1 -
//cgi-sys/entropybanner.cgi 1 -
//cgi-bin/store.cgi 1 -
/index.do 1 -
/qfqf/qfq/qf.php 1 -
//cgi-bin/shop.cgi 1 -
/wordpress/wp-login.php 1 -
/db 1 -
/jojo/joj/jo.php 1 -
/MySQLDumper 1 -
//suspendedpage.cgi 1 -
//upload.cgi 1 -
/wmwm/wmw/wm.php 1 -
/index.action 1 -
//cgi-bin/adminhot.cgi 1 -
//bigconf.cgi 1 -
/cimages/1-016.png 2 http://sweetwood.com.ua/gp/index.php
//wwwboard.cgi 1 -
/mysqladmin 1 -
//cgi-bin/ezboard.cgi 1 -
/phpMyAdmin/config/config.inc.php 1 -
//cgi-sys/randhtml.cgi 1 -
/piwthfcnwd.html 1 -
//cgi-sys/addalink.cgi 1 -
/gjgj/gjg/gj.php 1 -
/sql 2 -
/cimages/poroh_velyka.png 3 http://sweetwood.com.ua/gp/index.php
/wp//wp-login.php 2 -
//test.cgi 1 -
/index.php/pst/222/blackberry+cupcakes 1 -
//cgi-bin/YaBB/YaBB.cgi 1 -
/sqladmin 1 -
/jvjv/jvj/jv.php 1 -
/images/banners/ourbutton.html 5 http://whois.domaintools.com/zinkovska.com
/myadmin/scripts/setup.php 23 -
/omom/omo/om.php 1 -
/blog/wp-login.php 1 -
//cgi-bin/build.cgi 1 -
//cgi-sys/defaultwebpage.cgi 1 -
/www.sweetwood.com.ua 6 -
/msd 1 -
/cgi-bin/php.cgi 1 -
//cgi-bin/handler.cgi 1 -
/cimages/003.png 1 http://sweetwood.com.ua/gp/catalog.php
//submit.cgi 1 -
//wwwadmin.cgi 1 -
/etc/lib/pChart2/examples/index.php 1 -
/mysqladmin/scripts/setup.php 1 -
//bandwidth/index.cgi 1 -
/w00tw00t.at.blackhats.romanian.anti-sec:) 5 -
//cgi-bin/traffic.cgi 1 -
//cgi-bin/af.cgi 1 -
//cgi-bin/classified.cgi 1 -
/cgi-bin/php5 2 -
/MyAdmin/scripts/setup.php 5 -
/cgi-bin/php4 1 -
//cart.cgi 1 -
/cimages/sovok.png 3 http://sweetwood.com.ua/gp/index.php
/phpmyadmin/scripts/setup.php 6 -
/SQLiteManager-1.2.4/main.php 1 -
/site/ 2 http://xn----8sbeheinbbklugv5aobadnwc6r.xn--p1ai
//connector.cgi 1 -
//cgi-bin/download.cgi 1 -
/user/soapCaller.bs 4 -
//cgi-bin/upload.cgi 1 -
/hudson/login 1 -
/cgi-bin/php-cgi 2 -
/wp/wp-login.php 1 -
//_mt/mt.cgi 1 -
/dumper 1 -
//cgi-bin/test/test.cgi 1 -
/user/ 1 -
//wwwboard/wwwboard.cgi 1 -
/Wordpress/wp-login.php 1 -
//cgi-bin/dig.cgi 1 -
/load/22-3-2 1 http://www.google.com/m/search
/mysqldumper 1 -
/cimages/poroh_mala.png 3 http://sweetwood.com.ua/gp/index.php
/qbqb/qbq/qb.php 1 -
/zc/chs/img/body.png 1 -
//cgi-bin/r.cgi 1 -
//info.cgi 1 -
/phppath/cgi_wrapper 1 -
/hudson/script 1 -
//agora.cgi 1 -
/pma/scripts/setup.php 20 -
//cgi-bin/test.cgi 1 -
//cgi-bin/book.cgi 1 -
/wordpress//wp-login.php 2 -
/wiki/Special:Search 3 -
//index.cgi 1 -
//cgi-bin/test2.pl 1 -
/sqlite/main.php 1 -
/ckcskiftdqh.html 1 -
//cgi-bin/journal.cgi 1 -
END_SIDER_404

# Host - Pages - Hits - Bandwidth - Last visit date - [Start date of last visit] - [Last page of last visit]
# [Start date of last visit] and [Last page of last visit] are saved only if session is not finished
# The 10 first Hits must be first (order not required for others)
BEGIN_VISITOR 32
195.160.233.253 43 210 14226378 20141209115548
89.162.242.238 41 2448 321576643 20141224155418
188.130.211.78 39 761 120758500 20141231212350
109.190.153.246 15 15 73188 20141204180803
216.130.128.55 3 3 40849 20141226141603
143.233.204.28 3 3 40849 20141207230217
89.78.233.246 3 71 13667136 20141209004142
217.69.133.169 3 3 16710 20141222061741
78.27.128.96 2 136 27310174 20141228222721
176.193.44.186 1 26 1182547 20141219193608
50.30.32.186 1 1 5568 20141204040257
192.184.42.205 1 1 5571 20141209044328
182.118.54.26 1 1 5568 20141231103216
199.19.249.196 1 1 27421 20141210184747
54.154.70.6 1 1 27421 20141210130700
66.249.81.232 1 21 5868415 20141204161531
150.70.173.38 1 1 27421 20141202101418
54.149.201.166 1 1 27421 20141224123051
150.70.97.127 1 1 27421 20141224123044
66.249.81.229 0 23 1842853 
66.249.81.226 0 24 5943819 
54.164.165.141 1 1 27475 20141206072326
193.174.89.19 1 1 27421 20141215084229
182.118.55.230 1 1 5568 20141219152616
92.242.35.54 1 1 5563 20141226182748
213.211.132.213 1 1 27422 20141220153943
192.42.132.101 1 1 27511 20141211020411
182.53.164.239 1 1 27421 20141231020607
107.150.52.85 1 1 27421 20141209124930
5.165.248.205 1 68 13655087 20141226182745
80.76.224.36 1 1 27421 20141213185723
46.182.30.93 1 1 27421 20141213174417
END_VISITOR

# Date - Pages - Hits - Bandwidth - Visits
BEGIN_DAY 20
20141202 1 1 27421 1
20141203 1 68 13655023 1
20141204 17 84 13733843 3
20141205 57 657 78973996 5
20141206 2 69 13682498 2
20141207 9 85 14033434 2
20141208 12 679 89349210 4
20141209 33 715 88676030 8
20141210 13 741 93639809 3
20141211 1 1 27511 1
20141213 2 2 54842 2
20141215 4 132 18990288 2
20141216 1 68 13655087 1
20141219 2 27 1188115 2
20141220 1 1 27422 1
20141222 2 69 13660593 2
20141224 5 152 14406865 4
20141226 5 72 13701499 3
20141228 2 136 27310110 2
20141231 3 71 17794008 3
END_DAY

# Session range - Number of visits
BEGIN_SESSION 5
1h+ 5
5mn-15mn 1
0s-30s 42
15mn-30mn 1
30mn-1h 3
END_SESSION

# URL - Pages - Bandwidth - Entry - Exit
# The 10 first Pages must be first (order not required for others)
BEGIN_SIDER 25
/ 81 756222 47 43
/myadmin/index.php 23 98103 1 1
/plast/index.php 11 23932 0 0
/plast/ 9 8050 0 0
/gp/catalog.php 8 15627 0 0
/index.php/site/login 7 29775 0 2
/gp/product.php 5 8346 0 1
/gp/index.php 4 9794 0 0
/myadmin/phpmyadmin.css.php 3 12558 0 0
/gp/ 3 7345 0 0
/myadmin/db_structure.php 1 5217 0 0
/myadmin/db_export.php 1 8071 0 0
/plast/requirements/ 1 2053 0 0
// 1 27422 1 1
/webmail/src/login.php 1 1923 1 0
/myadmin/main.php 1 8088 0 0
/myadmin/navigation.php 2 5199 0 0
/myadmin/ 1 3765 1 0
/myadmin/export.php 1 13697 0 1
/index.php/comment/index 1 3528 0 1
/index.php/posts/rice+pudding 1 3725 1 1
/index.php 1 6265 0 0
/plast/web/ 2 788 0 0
/gp/contacts.php 3 5499 0 0
/webmail/src/redirect.php 1 2447 0 1
END_SIDER
